{  
  "page":1,
  "total_results":19160,
  "total_pages":958,
  "results":[  
    {  
      "popularity":31.52787,
      "id":73968,
      "profilePath":{  
        "s":"https://image.tmdb.org/t/p/w45/hErUwonrQgY5Y7RfxOfv8Fq11MB.jpg",
        "m":"https://image.tmdb.org/t/p/w185/hErUwonrQgY5Y7RfxOfv8Fq11MB.jpg",
        "l":"https://image.tmdb.org/t/p/h632/hErUwonrQgY5Y7RfxOfv8Fq11MB.jpg",
        "orig":"https://image.tmdb.org/t/p/original/hErUwonrQgY5Y7RfxOfv8Fq11MB.jpg"
      },
      "name":"Henry Cavill",
      "knownFor":[  
        {  
          "voteAverage":5.7,
          "voteCount":7871,
          "id":209112,
          "video":false,
          "mediaType":"movie",
          "title":"Batman v Superman: Dawn of Justice",
          "popularity":64.014183,
          "posterPath":{  
            "xs":"https://image.tmdb.org/t/p/w154/cGOPbv9wA5gEejkUN892JrveARt.jpg",
            "s":"https://image.tmdb.org/t/p/w185/cGOPbv9wA5gEejkUN892JrveARt.jpg",
            "m":"https://image.tmdb.org/t/p/w342/cGOPbv9wA5gEejkUN892JrveARt.jpg",
            "l":"https://image.tmdb.org/t/p/w500/cGOPbv9wA5gEejkUN892JrveARt.jpg",
            "xl":"https://image.tmdb.org/t/p/w780/cGOPbv9wA5gEejkUN892JrveARt.jpg",
            "orig":"https://image.tmdb.org/t/p/original/cGOPbv9wA5gEejkUN892JrveARt.jpg"
          },
          "originalLanguage":"en",
          "originalTitle":"Batman v Superman: Dawn of Justice",
          "genreIds":[  
            28,
            12,
            14
          ],
          "backdropPath":{  
            "s":"https://image.tmdb.org/t/p/w300/vsjBeMPZtyB7yNsYY56XYxifaQZ.jpg",
            "m":"https://image.tmdb.org/t/p/w780/vsjBeMPZtyB7yNsYY56XYxifaQZ.jpg",
            "l":"https://image.tmdb.org/t/p/w1280/vsjBeMPZtyB7yNsYY56XYxifaQZ.jpg",
            "orig":"https://image.tmdb.org/t/p/original/vsjBeMPZtyB7yNsYY56XYxifaQZ.jpg"
          },
          "adult":false,
          "overview":"Fearing the actions of a god-like Super Hero left unchecked, Gotham City’s own formidable, forceful vigilante takes on Metropolis’s most revered, modern-day savior, while the world wrestles with what sort of hero it really needs. And with Batman and Superman at war with one another, a new threat quickly arises, putting mankind in greater danger than it’s ever known before.",
          "releaseDate":"2016-03-23"
        },
        {  
          "voteAverage":6.5,
          "voteCount":6865,
          "id":49521,
          "video":false,
          "mediaType":"movie",
          "title":"Man of Steel",
          "popularity":43.234746,
          "posterPath":{  
            "xs":"https://image.tmdb.org/t/p/w154/xWlaTLnD8NJMTT9PGOD9z5re1SL.jpg",
            "s":"https://image.tmdb.org/t/p/w185/xWlaTLnD8NJMTT9PGOD9z5re1SL.jpg",
            "m":"https://image.tmdb.org/t/p/w342/xWlaTLnD8NJMTT9PGOD9z5re1SL.jpg",
            "l":"https://image.tmdb.org/t/p/w500/xWlaTLnD8NJMTT9PGOD9z5re1SL.jpg",
            "xl":"https://image.tmdb.org/t/p/w780/xWlaTLnD8NJMTT9PGOD9z5re1SL.jpg",
            "orig":"https://image.tmdb.org/t/p/original/xWlaTLnD8NJMTT9PGOD9z5re1SL.jpg"
          },
          "originalLanguage":"en",
          "originalTitle":"Man of Steel",
          "genreIds":[  
            28,
            12,
            14,
            878
          ],
          "backdropPath":{  
            "s":"https://image.tmdb.org/t/p/w300/jYLh4mdOqkt30i7LTFs3o02UcGF.jpg",
            "m":"https://image.tmdb.org/t/p/w780/jYLh4mdOqkt30i7LTFs3o02UcGF.jpg",
            "l":"https://image.tmdb.org/t/p/w1280/jYLh4mdOqkt30i7LTFs3o02UcGF.jpg",
            "orig":"https://image.tmdb.org/t/p/original/jYLh4mdOqkt30i7LTFs3o02UcGF.jpg"
          },
          "adult":false,
          "overview":"A young boy learns that he has extraordinary powers and is not of this earth. As a young man, he journeys to discover where he came from and what he was sent here to do. But the hero in him must emerge if he is to save the world from annihilation and become the symbol of hope for all mankind.",
          "releaseDate":"2013-06-12"
        }
      ],
      "adult":false
    },
    {  
      "popularity":28.111462,
      "id":137905,
      "profilePath":{  
        "s":"https://image.tmdb.org/t/p/w45/dNBVysW90WipOgX81sAsvxtvddF.jpg",
        "m":"https://image.tmdb.org/t/p/w185/dNBVysW90WipOgX81sAsvxtvddF.jpg",
        "l":"https://image.tmdb.org/t/p/h632/dNBVysW90WipOgX81sAsvxtvddF.jpg",
        "orig":"https://image.tmdb.org/t/p/original/dNBVysW90WipOgX81sAsvxtvddF.jpg"
      },
      "name":"Bill Skarsgård",
      "knownFor":[  
        {  
          "voteAverage":7.2,
          "voteCount":4692,
          "id":346364,
          "video":false,
          "mediaType":"movie",
          "title":"It",
          "popularity":800.484713,
          "posterPath":{  
            "xs":"https://image.tmdb.org/t/p/w154/9E2y5Q7WlCVNEhP5GiVTjhEhx1o.jpg",
            "s":"https://image.tmdb.org/t/p/w185/9E2y5Q7WlCVNEhP5GiVTjhEhx1o.jpg",
            "m":"https://image.tmdb.org/t/p/w342/9E2y5Q7WlCVNEhP5GiVTjhEhx1o.jpg",
            "l":"https://image.tmdb.org/t/p/w500/9E2y5Q7WlCVNEhP5GiVTjhEhx1o.jpg",
            "xl":"https://image.tmdb.org/t/p/w780/9E2y5Q7WlCVNEhP5GiVTjhEhx1o.jpg",
            "orig":"https://image.tmdb.org/t/p/original/9E2y5Q7WlCVNEhP5GiVTjhEhx1o.jpg"
          },
          "originalLanguage":"en",
          "originalTitle":"It",
          "genreIds":[  
            18,
            14,
            27,
            53
          ],
          "backdropPath":{  
            "s":"https://image.tmdb.org/t/p/w300/tcheoA2nPATCm2vvXw2hVQoaEFD.jpg",
            "m":"https://image.tmdb.org/t/p/w780/tcheoA2nPATCm2vvXw2hVQoaEFD.jpg",
            "l":"https://image.tmdb.org/t/p/w1280/tcheoA2nPATCm2vvXw2hVQoaEFD.jpg",
            "orig":"https://image.tmdb.org/t/p/original/tcheoA2nPATCm2vvXw2hVQoaEFD.jpg"
          },
          "adult":false,
          "overview":"In a small town in Maine, seven children known as The Losers Club come face to face with life problems, bullies and a monster that takes the shape of a clown called Pennywise.",
          "releaseDate":"2017-09-05"
        },
        {  
          "voteAverage":5.9,
          "voteCount":2277,
          "id":262504,
          "video":false,
          "mediaType":"movie",
          "title":"Allegiant",
          "popularity":17.645704,
          "posterPath":{  
            "xs":"https://image.tmdb.org/t/p/w154/tSFBh9Ayn5uiwbUK9HvD2lrRgaQ.jpg",
            "s":"https://image.tmdb.org/t/p/w185/tSFBh9Ayn5uiwbUK9HvD2lrRgaQ.jpg",
            "m":"https://image.tmdb.org/t/p/w342/tSFBh9Ayn5uiwbUK9HvD2lrRgaQ.jpg",
            "l":"https://image.tmdb.org/t/p/w500/tSFBh9Ayn5uiwbUK9HvD2lrRgaQ.jpg",
            "xl":"https://image.tmdb.org/t/p/w780/tSFBh9Ayn5uiwbUK9HvD2lrRgaQ.jpg",
            "orig":"https://image.tmdb.org/t/p/original/tSFBh9Ayn5uiwbUK9HvD2lrRgaQ.jpg"
          },
          "originalLanguage":"en",
          "originalTitle":"Allegiant",
          "genreIds":[  
            12,
            878
          ],
          "backdropPath":{  
            "s":"https://image.tmdb.org/t/p/w300/sFthBeT0Y3WVfg6b3MkcJs9qfzq.jpg",
            "m":"https://image.tmdb.org/t/p/w780/sFthBeT0Y3WVfg6b3MkcJs9qfzq.jpg",
            "l":"https://image.tmdb.org/t/p/w1280/sFthBeT0Y3WVfg6b3MkcJs9qfzq.jpg",
            "orig":"https://image.tmdb.org/t/p/original/sFthBeT0Y3WVfg6b3MkcJs9qfzq.jpg"
          },
          "adult":false,
          "overview":"Beatrice Prior and Tobias Eaton venture into the world outside of the fence and are taken into protective custody by a mysterious agency known as the Bureau of Genetic Welfare.",
          "releaseDate":"2016-03-09"
        }
      ],
      "adult":false
    },
    {  
      "popularity":23.956332,
      "id":26723,
      "profilePath":{  
        "s":"https://image.tmdb.org/t/p/w45/k5bAyHknFqwRoFGc1Pmh7JAffWj.jpg",
        "m":"https://image.tmdb.org/t/p/w185/k5bAyHknFqwRoFGc1Pmh7JAffWj.jpg",
        "l":"https://image.tmdb.org/t/p/h632/k5bAyHknFqwRoFGc1Pmh7JAffWj.jpg",
        "orig":"https://image.tmdb.org/t/p/original/k5bAyHknFqwRoFGc1Pmh7JAffWj.jpg"
      },
      "name":"Katheryn Winnick",
      "knownFor":[  
        {  
          "voteAverage":6.6,
          "voteCount":2336,
          "id":1824,
          "video":false,
          "mediaType":"movie",
          "title":"50 First Dates",
          "popularity":15.944087,
          "posterPath":{  
            "xs":"https://image.tmdb.org/t/p/w154/vKKdsaq3OomDvFdpPpWVg0L6gB9.jpg",
            "s":"https://image.tmdb.org/t/p/w185/vKKdsaq3OomDvFdpPpWVg0L6gB9.jpg",
            "m":"https://image.tmdb.org/t/p/w342/vKKdsaq3OomDvFdpPpWVg0L6gB9.jpg",
            "l":"https://image.tmdb.org/t/p/w500/vKKdsaq3OomDvFdpPpWVg0L6gB9.jpg",
            "xl":"https://image.tmdb.org/t/p/w780/vKKdsaq3OomDvFdpPpWVg0L6gB9.jpg",
            "orig":"https://image.tmdb.org/t/p/original/vKKdsaq3OomDvFdpPpWVg0L6gB9.jpg"
          },
          "originalLanguage":"en",
          "originalTitle":"50 First Dates",
          "genreIds":[  
            35,
            10749
          ],
          "backdropPath":{  
            "s":"https://image.tmdb.org/t/p/w300/ny2EnW3hj8lao4luKj7qD2pB8jk.jpg",
            "m":"https://image.tmdb.org/t/p/w780/ny2EnW3hj8lao4luKj7qD2pB8jk.jpg",
            "l":"https://image.tmdb.org/t/p/w1280/ny2EnW3hj8lao4luKj7qD2pB8jk.jpg",
            "orig":"https://image.tmdb.org/t/p/original/ny2EnW3hj8lao4luKj7qD2pB8jk.jpg"
          },
          "adult":false,
          "overview":"Henry is a player skilled at seducing women. But when this veterinarian meets Lucy, a girl with a quirky problem when it comes to total recall, he realizes it's possible to fall in love all over again…and again, and again. That's because the delightful Lucy has no short-term memory, so Henry must woo her day after day until he finally sweeps her off her feet.",
          "releaseDate":"2004-02-13"
        },
        {  
          "voteAverage":6.7,
          "voteCount":1376,
          "id":43347,
          "video":false,
          "mediaType":"movie",
          "title":"Love & Other Drugs",
          "popularity":17.672321,
          "posterPath":{  
            "xs":"https://image.tmdb.org/t/p/w154/4jU64i4kAEtQUlsYsQPAdfpI7aP.jpg",
            "s":"https://image.tmdb.org/t/p/w185/4jU64i4kAEtQUlsYsQPAdfpI7aP.jpg",
            "m":"https://image.tmdb.org/t/p/w342/4jU64i4kAEtQUlsYsQPAdfpI7aP.jpg",
            "l":"https://image.tmdb.org/t/p/w500/4jU64i4kAEtQUlsYsQPAdfpI7aP.jpg",
            "xl":"https://image.tmdb.org/t/p/w780/4jU64i4kAEtQUlsYsQPAdfpI7aP.jpg",
            "orig":"https://image.tmdb.org/t/p/original/4jU64i4kAEtQUlsYsQPAdfpI7aP.jpg"
          },
          "originalLanguage":"en",
          "originalTitle":"Love & Other Drugs",
          "genreIds":[  
            18,
            35,
            10749
          ],
          "backdropPath":{  
            "s":"https://image.tmdb.org/t/p/w300/oCS8EsEPOe6YfBfwBDRwvHBl1FN.jpg",
            "m":"https://image.tmdb.org/t/p/w780/oCS8EsEPOe6YfBfwBDRwvHBl1FN.jpg",
            "l":"https://image.tmdb.org/t/p/w1280/oCS8EsEPOe6YfBfwBDRwvHBl1FN.jpg",
            "orig":"https://image.tmdb.org/t/p/original/oCS8EsEPOe6YfBfwBDRwvHBl1FN.jpg"
          },
          "adult":false,
          "overview":"Maggie, an alluring free spirit who won't let anyone - or anything - tie her down. But she meets her match in Jamie, whose relentless and nearly infallible charm serve him well with the ladies and in the cutthroat world of pharmaceutical sales. Maggie and Jamie's evolving relationship takes them both by surprise, as they find themselves under the influence of the ultimate drug: love.",
          "releaseDate":"2010-11-22"
        }
      ],
      "adult":false
    }
  ]
}