{
  "page": 1,
  "total_results": 19818,
  "total_pages": 991,
  "results": [
    {
      "vote_count": 4463,
      "id": 346364,
      "video": false,
      "vote_average": 7.2,
      "title": "It",
      "popularity": 790.420668,
      "poster_path": "/9E2y5Q7WlCVNEhP5GiVTjhEhx1o.jpg",
      "original_language": "en",
      "original_title": "It",
      "genre_ids": [
        18,
        14,
        27,
        53
      ],
      "backdrop_path": "/tcheoA2nPATCm2vvXw2hVQoaEFD.jpg",
      "adult": false,
      "overview": "In a small town in Maine, seven children known as The Losers Club come face to face with life problems, bullies and a monster that takes the shape of a clown called Pennywise.",
      "release_date": "2017-09-05"
    },
    {
      "vote_count": 2798,
      "id": 8844,
      "video": false,
      "vote_average": 6.9,
      "title": "Jumanji",
      "popularity": 656.188721,
      "poster_path": "/8wBKXZNod4frLZjAKSDuAcQ2dEU.jpg",
      "original_language": "en",
      "original_title": "Jumanji",
      "genre_ids": [
        12,
        14,
        10751
      ],
      "backdrop_path": "/52lVqTDhIeNTjT7EiJuovXgw6iE.jpg",
      "adult": false,
      "overview": "When siblings Judy and Peter discover an enchanted board game that opens the door to a magical world, they unwittingly invite Alan -- an adult who's been trapped inside the game for 26 years -- into their living room. Alan's only hope for freedom is to finish the game, which proves risky as all three find themselves running from giant rhinoceroses, evil monkeys and other terrifying creatures.",
      "release_date": "1995-12-15"
    }
  ]
}